<?xml version="1.0" encoding="UTF-8" standalone="no"?>
<svg
   xmlns:dc="http://purl.org/dc/elements/1.1/"
   xmlns:cc="http://creativecommons.org/ns#"
   xmlns:rdf="http://www.w3.org/1999/02/22-rdf-syntax-ns#"
   xmlns:svg="http://www.w3.org/2000/svg"
   xmlns="http://www.w3.org/2000/svg"
   xmlns:sodipodi="http://sodipodi.sourceforge.net/DTD/sodipodi-0.dtd"
   xmlns:inkscape="http://www.inkscape.org/namespaces/inkscape"
   inkscape:version="1.0 (4035a4fb49, 2020-05-01)"
   sodipodi:docname="imgCoinsSvg.svg"
   viewBox="0 0 1024 1024"
   height="1024"
   width="1024"
   id="svg833"
   version="1.1">
  <metadata
     id="metadata839">
    <rdf:RDF>
      <cc:Work
         rdf:about="">
        <dc:format>image/svg+xml</dc:format>
        <dc:type
           rdf:resource="http://purl.org/dc/dcmitype/StillImage" />
        <dc:title></dc:title>
      </cc:Work>
    </rdf:RDF>
  </metadata>
  <defs
     id="defs837" />
  <sodipodi:namedview
     inkscape:current-layer="g841"
     inkscape:window-maximized="1"
     inkscape:window-y="-8"
     inkscape:window-x="-8"
     inkscape:cy="462.5314"
     inkscape:cx="512"
     inkscape:zoom="0.80859375"
     showgrid="false"
     id="namedview835"
     inkscape:window-height="1018"
     inkscape:window-width="1920"
     inkscape:pageshadow="2"
     inkscape:pageopacity="0"
     guidetolerance="10"
     gridtolerance="10"
     objecttolerance="10"
     borderopacity="1"
     bordercolor="#666666"
     pagecolor="#ffffff" />
  <g
     id="g841"
     inkscape:label="Image"
     inkscape:groupmode="layer">
    <g
       transform="translate(-6.1835774,-38.338168)"
       id="g845">
      <path
         id="path859"
         d="m 289.18357,774.93146 c -23.21716,-1.92747 -52.96698,-8.48022 -74.66724,-16.44634 -14.88848,-5.46554 -44.41797,-20.42866 -57.33276,-29.05155 C 139.58876,717.68595 128.09924,708.14259 111.64673,691.61002 66.777606,646.52255 39.137396,589.05615 31.687331,525.36747 29.948807,510.50529 29.716819,480.86907 31.221483,465.85595 39.866284,379.60052 86.545254,303.71236 160.68357,255.38344 c 19.93246,-12.99347 51.88496,-27.232 76.1358,-33.92727 85.3199,-23.5555 174.72219,-6.16324 246.86833,48.02558 24.432,18.35083 50.53742,46.91019 67.42975,73.76825 l 4.2454,6.75 204.16036,0.0136 c 112.2882,0.008 205.17286,0.285 206.41036,0.61664 2.12885,0.57051 2.25,1.1038 2.25,9.90455 0,5.11587 0.27314,10.01339 0.60699,10.88337 0.49573,1.29185 2.38373,1.58179 10.3,1.58179 6.20567,0 10.12474,0.43173 10.89301,1.2 1.74431,1.74431 1.74431,295.85569 0,297.6 -0.92634,0.92634 -53.38648,1.2 -230.03914,1.2 H 531.10529 l -16.71086,16.88776 c -17.78299,17.97124 -28.81445,27.20078 -47.25447,39.53579 -14.15152,9.46631 -40.27396,22.66333 -57.14337,28.86876 -38.02203,13.98641 -81.1756,19.9298 -120.81302,16.63915 z"
         style="fill:#f7f098" />
      <path
         id="path857"
         d="m 289.18357,774.93146 c -23.21716,-1.92747 -52.96698,-8.48022 -74.66724,-16.44634 -14.88848,-5.46554 -44.41797,-20.42866 -57.33276,-29.05155 C 139.58876,717.68595 128.09924,708.14259 111.64673,691.61002 66.777606,646.52255 39.137396,589.05615 31.687331,525.36747 29.948807,510.50529 29.716819,480.86907 31.221483,465.85595 39.866284,379.60052 86.545254,303.71236 160.68357,255.38344 c 19.93246,-12.99347 51.88496,-27.232 76.1358,-33.92727 85.3199,-23.5555 174.72219,-6.16324 246.86833,48.02558 24.432,18.35083 50.53742,46.91019 67.42975,73.76825 l 4.2454,6.75 204.16036,0.0136 c 112.2882,0.008 205.17286,0.285 206.41036,0.61664 2.12885,0.57051 2.25,1.1038 2.25,9.90455 0,5.11587 0.27314,10.01339 0.60699,10.88337 0.49573,1.29185 2.38373,1.58179 10.3,1.58179 6.20567,0 10.12474,0.43173 10.89301,1.2 1.74431,1.74431 1.74431,295.85569 0,297.6 -0.92634,0.92634 -53.38648,1.2 -230.03914,1.2 H 531.10529 l -16.71086,16.88776 c -17.78299,17.97124 -28.81445,27.20078 -47.25447,39.53579 -14.15152,9.46631 -40.27396,22.66333 -57.14337,28.86876 -38.02203,13.98646 -81.1756,19.92985 -120.81302,16.6392 z M 322.69872,668.75 l -1.01515,-12.25 -4,-0.23703 c -10.93005,-0.64771 -27.02881,-2.61429 -35.90041,-4.38552 -5.44523,-1.08714 -10.25515,-1.61681 -10.68871,-1.17704 -0.43356,0.43978 -0.92838,5.86431 -1.09959,12.05452 l -0.31129,11.25493 4.5,1.47144 c 3.929,1.28474 16.33914,3.63445 25.5,4.82813 1.65,0.215 7.73182,0.45833 13.51515,0.54074 L 323.71387,681 Z m -4.73025,-41.10548 c 0.18757,-7.14676 -0.1105,-11.33192 -0.87244,-12.25 -0.71381,-0.86009 -3.12243,-1.3956 -6.2849,-1.39734 -7.24708,-0.004 -21.35807,-1.74518 -33.51286,-4.13526 -12.08043,-2.37545 -12.51277,-2.1666 -11.67122,5.63808 0.29653,2.75 0.54305,7.61046 0.54783,10.80103 0.008,5.6015 0.12047,5.84688 3.25869,7.13426 2.84451,1.1669 16.44625,3.81796 25.25,4.92139 1.65,0.2068 7.5,0.32365 13,0.25966 l 10,-0.11634 z m 4.20291,-27.12983 c 0.91208,-1.09899 1.04721,-4.3247 0.51955,-12.40198 l -0.71314,-10.91667 -9.14711,-0.67964 c -9.97964,-0.74148 -26.37944,-2.98185 -32.97801,-4.50509 -2.29301,-0.52933 -5.4066,-0.97342 -6.9191,-0.98686 l -2.75,-0.0245 v 10.80887 c 0,7.07987 0.43124,11.39141 1.25,12.49742 3.33112,4.4998 47.65468,9.92334 50.73781,6.2084 z M 464.8729,593.25 c -0.25153,-0.9625 -0.45733,-0.175 -0.45733,1.75 0,1.925 0.2058,2.7125 0.45733,1.75 0.25152,-0.9625 0.25152,-2.5375 0,-3.5 z m -1.00622,-6.4375 c -0.31922,-0.79773 -0.55618,-0.56078 -0.60416,0.60417 -0.0434,1.05416 0.19293,1.64479 0.52522,1.3125 0.33229,-0.33229 0.36781,-1.1948 0.0789,-1.91667 z M 317.97592,553.5 c 0.40359,-13.80514 0.16189,-14.49796 -5.0614,-14.50869 -6.15654,-0.0126 -27.48056,-2.64052 -37.38021,-4.60657 -7.29114,-1.448 -8.66948,-1.49048 -9.42358,-0.29041 -0.78497,1.24919 -0.30359,19.60616 0.59182,22.56873 0.84794,2.8055 28.08624,7.22397 42.98102,6.97218 l 8,-0.13524 z m -124.09936,-5.23097 c -0.25354,-0.97297 -0.47766,-0.41903 -0.49804,1.23097 -0.0204,1.65 0.18706,2.44606 0.46099,1.76903 0.27392,-0.67703 0.29059,-2.02703 0.0371,-3 z M 313.18357,514.7 c 0,-7.45556 -0.40826,-11.70826 -1.2,-12.5 -0.66,-0.66 -3.26094,-1.2 -5.77986,-1.2 -6.06094,0 -27.18884,-2.64228 -36.07546,-4.51164 C 266.23676,495.66976 262.63224,495 262.11819,495 c -0.52742,0 -0.93462,5.21289 -0.93462,11.96482 0,10.37185 0.23299,12.08942 1.75,12.90075 2.12809,1.13814 20.20499,4.96281 25.75,5.44813 2.2,0.19255 8.6125,0.42574 14.25,0.5182 l 10.25,0.1681 z m 151.69299,-2.43097 c -0.25354,-0.97297 -0.47766,-0.41903 -0.49804,1.23097 -0.0204,1.65 0.18706,2.44606 0.46099,1.76903 0.27392,-0.67703 0.29059,-2.02703 0.0371,-3 z M 193.84585,494.75 c -0.27741,-0.6875 -0.50439,-0.125 -0.50439,1.25 0,1.375 0.22698,1.9375 0.50439,1.25 0.27741,-0.6875 0.27741,-1.8125 0,-2.5 z M 317.9359,477.5 c 0.13878,-6.05 -0.12037,-11.57479 -0.57589,-12.2773 -0.52567,-0.8107 -5.18416,-1.65504 -12.75233,-2.31133 -10.77696,-0.93455 -30.66138,-3.9558 -36.0362,-5.47537 -3.01461,-0.85229 -3.34199,0.79908 -2.67289,13.48249 l 0.58522,11.09319 5.09988,1.52768 c 9.61942,2.88153 27.98346,5.22615 39.59988,5.0559 l 6.5,-0.0953 0.25233,-11 z m 141.93078,-2.6875 c -0.31922,-0.79773 -0.55618,-0.56078 -0.60416,0.60417 -0.0434,1.05416 0.19293,1.64479 0.52522,1.3125 0.33229,-0.33229 0.36781,-1.1948 0.0789,-1.91667 z m -1,-6 c -0.31922,-0.79773 -0.55618,-0.56078 -0.60416,0.60417 -0.0434,1.05416 0.19293,1.64479 0.52522,1.3125 0.33229,-0.33229 0.36781,-1.1948 0.0789,-1.91667 z m -94.68311,-21.67376 c 27.96976,-4.95787 48.37498,-13.67288 61.56152,-26.29274 30.34703,-29.04291 -2.27977,-63.05581 -69.3459,-72.29195 -14.46228,-1.9917 -43.02347,-2.01854 -58.88107,-0.0553 -38.32957,4.74529 -69.41264,19.90649 -78.84162,38.45609 -0.96586,1.90015 -1.98353,6.28794 -2.26148,9.75064 -0.4499,5.60476 -0.1591,6.99922 2.64929,12.70387 7.984,16.21779 30.02972,28.87695 62.64724,35.97347 17.35726,3.77638 26.43145,4.52821 49.97202,4.14039 15.42231,-0.25408 24.05445,-0.8874 32.5,-2.38444 z"
         style="fill:#c698c4" />
      <path
         id="path855"
         d="m 294.68357,774.38753 c -21.71511,-1.73938 -42.12461,-5.39919 -61.5,-11.02812 -17.41241,-5.05864 -27.97411,-9.22529 -46.5,-18.34451 C 104.28735,704.45605 47.728357,625.75844 33.411835,531.74875 c -2.4022,-15.77409 -2.391528,-60.50323 0.01825,-76.4975 6.465291,-42.91164 21.466968,-82.52353 44.22718,-116.78177 46.257095,-69.62531 118.435905,-113.91634 203.026305,-124.58289 14.71569,-1.8556 51.24355,-1.57524 66.5,0.5104 48.59954,6.64382 90.49818,23.29966 130.17201,51.74688 27.30651,19.57951 51.11906,44.59082 70.56137,74.11354 3.53418,5.36657 7.26038,10.20407 8.28046,10.75 C 557.4073,351.65492 629.17045,352 762.61783,352 h 204.56574 v 9.56574 c 0,13.51374 -0.0712,13.43426 12.03518,13.43426 h 9.96482 v 147.99362 147.99362 l -229.45513,0.25638 -229.45513,0.25638 -5.19325,6 c -23.55733,27.2169 -55.21852,51.67556 -87.39649,67.5149 -30.51107,15.01882 -57.18261,23.16316 -90,27.48211 -11.80931,1.55417 -43.21396,2.67438 -53,1.89052 z m 45.52986,-21.92228 c 31.40237,-3.86482 57.13509,-11.45613 84.47014,-24.91923 28.97803,-14.27229 47.66867,-27.6534 70.55266,-50.51048 41.16083,-41.11242 66.90335,-93.14649 74.40938,-150.40575 2.34969,-17.92443 2.087,-53.45516 -0.52218,-70.62979 -1.12801,-7.425 -2.41018,-15.93295 -2.84926,-18.90656 C 565.32726,430.68066 563.51089,429 557.52724,429 c -3.30094,0 -5.03436,-0.66754 -7.61328,-2.93186 -6.38718,-5.60802 -13.45548,-5.30563 -19.48822,0.83375 -3.71146,3.77707 -3.88649,3.83413 -21.32777,6.95322 -19.93645,3.5653 -22.47014,3.745 -23.27383,1.65061 -0.96445,-2.51331 -6.9243,-5.49803 -10.98628,-5.50198 -5.07583,-0.005 -9.40742,2.64471 -11.7352,7.17846 -1.38182,2.69135 -2.6344,3.76772 -4.65483,4 -2.75922,0.31722 -2.76462,0.33329 -2.96283,8.8178 -0.11807,5.05426 0.39759,10.62003 1.27204,13.72971 2.52359,8.97431 3.29915,14.55921 3.49643,25.17818 0.13954,7.51103 0.72705,11.65973 2.18543,15.43237 1.60088,4.14127 2.09295,8.41664 2.49292,21.65974 0.47949,15.87578 0.3991,16.78658 -2.12496,24.07518 -3.47303,10.02893 -3.6374,22.79018 -0.43614,33.86103 1.86259,6.44137 2.19648,10.16069 2.25,25.06379 0.0611,17.01838 -0.012,17.65977 -2.65715,23.30531 -3.39771,7.25176 -12.91515,17.28538 -22.19556,23.39934 -23.01951,15.16533 -56.95041,24.11035 -98.18816,25.88481 -13.21934,0.56883 -16.26425,0.44376 -17,-0.69826 -0.49295,-0.76516 -1.34628,-6.5662 -1.89628,-12.8912 l -1,-11.5 -4,-0.23703 c -10.89078,-0.64538 -27.01303,-2.6111 -35.79877,-4.3648 -5.38933,-1.07576 -10.22683,-1.69137 -10.75,-1.36803 -0.52318,0.32334 -0.95123,5.52546 -0.95123,11.56026 0,8.6894 -0.30331,11.08876 -1.45775,11.53176 -2.05368,0.78807 -20.47617,-5.06992 -30.20015,-9.60305 -18.53726,-8.64171 -31.22537,-19.33512 -36.73319,-30.95834 -3.00239,-6.33598 -3.12726,-7.14324 -3.64433,-23.56077 -0.44552,-14.1457 -0.86527,-17.6716 -2.5,-21 -1.73991,-3.54256 -1.96279,-6.11566 -1.94895,-22.5 0.0139,-16.40871 0.2682,-19.27495 2.25,-25.35534 3.00558,-9.22149 3.0347,-19.68914 0.0732,-26.31175 -1.57696,-3.52644 -2.18164,-6.9236 -2.23685,-12.56681 -0.0435,-4.44739 -0.52534,-7.90645 -1.13387,-8.13997 -0.58201,-0.22334 -3.95301,1.56129 -7.4911,3.96585 -6.02682,4.09595 -6.74989,4.33568 -11.45494,3.79789 -4.20759,-0.48094 -5.58968,-0.19096 -8.52206,1.78798 -4.60169,3.1055 -7.24805,8.27615 -6.57177,12.84039 0.46961,3.16948 -0.0535,4.183 -5.27703,10.22396 -3.18908,3.68814 -8.01522,9.84794 -10.72476,13.68843 -3.20471,4.54235 -5.62542,7.00554 -6.92644,7.04801 -4.04244,0.13195 -10.35562,3.84147 -12.02202,7.06395 -1.63129,3.15455 -1.7071,10.5516 -0.14308,13.96058 C 124.94695,571.11674 108.0309,588 103.4828,588 c -0.7418,0 -1.81756,-1.2375 -2.39059,-2.75 -3.390608,-8.94953 -14.628693,-11.61942 -21.547833,-5.11923 l -2.318941,2.17853 -7.555331,-5.78691 c -4.155433,-3.18281 -7.829756,-5.5125 -8.165163,-5.17709 -1.1753,1.1753 6.936654,22.29913 14.398541,37.49434 12.451062,25.35504 26.908887,45.65457 47.733347,67.0201 41.31856,42.3921 93.56477,68.35451 154.04674,76.54954 14.11064,1.91193 47.20913,1.94155 62.52986,0.056 z M 317.96847,627.64452 c 0.18757,-7.14676 -0.1105,-11.33192 -0.87244,-12.25 -0.71381,-0.86009 -3.12243,-1.3956 -6.2849,-1.39734 -7.24708,-0.004 -21.35807,-1.74518 -33.51286,-4.13526 -12.08043,-2.37545 -12.51277,-2.1666 -11.67122,5.63808 0.29653,2.75 0.54305,7.61046 0.54783,10.80103 0.008,5.6015 0.12047,5.84688 3.25869,7.13426 2.84451,1.1669 16.44625,3.81796 25.25,4.92139 1.65,0.2068 7.5,0.32365 13,0.25966 l 10,-0.11634 z m 4.20291,-27.12983 c 0.91208,-1.09899 1.04721,-4.3247 0.51955,-12.40198 l -0.71314,-10.91667 -9.14711,-0.67964 c -9.97964,-0.74148 -26.37944,-2.98185 -32.97801,-4.50509 -2.29301,-0.52933 -5.4066,-0.97342 -6.9191,-0.98686 l -2.75,-0.0245 v 10.80887 c 0,7.07987 0.43124,11.39141 1.25,12.49742 3.33112,4.4998 47.65468,9.92334 50.73781,6.2084 z M 317.97592,553.5 c 0.40359,-13.80514 0.16189,-14.49796 -5.0614,-14.50869 -6.15654,-0.0126 -27.48056,-2.64052 -37.38021,-4.60657 -7.29114,-1.448 -8.66948,-1.49048 -9.42358,-0.29041 -0.78497,1.24919 -0.30359,19.60616 0.59182,22.56873 0.84794,2.8055 28.08624,7.22397 42.98102,6.97218 l 8,-0.13524 z m -4.79235,-38.8 c 0,-7.45556 -0.40826,-11.70826 -1.2,-12.5 -0.66,-0.66 -3.26094,-1.2 -5.77986,-1.2 -6.06094,0 -27.18884,-2.64228 -36.07546,-4.51164 C 266.23676,495.66976 262.63224,495 262.11819,495 c -0.52742,0 -0.93462,5.21289 -0.93462,11.96482 0,10.37185 0.23299,12.08942 1.75,12.90075 2.12809,1.13814 20.20499,4.96281 25.75,5.44813 2.2,0.19255 8.6125,0.42574 14.25,0.5182 l 10.25,0.1681 z m 4.75233,-37.2 c 0.13878,-6.05 -0.12037,-11.57479 -0.57589,-12.2773 -0.52567,-0.8107 -5.18416,-1.65504 -12.75233,-2.31133 -10.77696,-0.93455 -30.66138,-3.9558 -36.0362,-5.47537 -3.01461,-0.85229 -3.34199,0.79908 -2.67289,13.48249 l 0.58522,11.09319 5.09988,1.52768 c 9.61942,2.88153 27.98346,5.22615 39.59988,5.0559 l 6.5,-0.0953 0.25233,-11 z m 46.24767,-30.36126 c 27.96976,-4.95787 48.37498,-13.67288 61.56152,-26.29274 30.34703,-29.04291 -2.27977,-63.05581 -69.3459,-72.29195 -14.46228,-1.9917 -43.02347,-2.01854 -58.88107,-0.0553 -38.32957,4.74529 -69.41264,19.90649 -78.84162,38.45609 -0.96586,1.90015 -1.98353,6.28794 -2.26148,9.75064 -0.4499,5.60476 -0.1591,6.99922 2.64929,12.70387 7.984,16.21779 30.02972,28.87695 62.64724,35.97347 17.35726,3.77638 26.43145,4.52821 49.97202,4.14039 15.42231,-0.25408 24.05445,-0.8874 32.5,-2.38444 z"
         style="fill:#efdb27" />
      <path
         id="path853"
         d="m 294.68357,774.38753 c -21.71511,-1.73938 -42.12461,-5.39919 -61.5,-11.02812 -17.41241,-5.05864 -27.97411,-9.22529 -46.5,-18.34451 C 104.28735,704.45605 47.728357,625.75844 33.411835,531.74875 c -2.4022,-15.77409 -2.391528,-60.50323 0.01825,-76.4975 6.465291,-42.91164 21.466968,-82.52353 44.22718,-116.78177 46.257095,-69.62531 118.435905,-113.91634 203.026305,-124.58289 14.71569,-1.8556 51.24355,-1.57524 66.5,0.5104 48.59954,6.64382 90.49818,23.29966 130.17201,51.74688 27.30651,19.57951 51.11906,44.59082 70.56137,74.11354 3.53418,5.36657 7.26038,10.20407 8.28046,10.75 C 557.4073,351.65492 629.17045,352 762.61783,352 h 204.56574 v 9.56574 c 0,13.51374 -0.0712,13.43426 12.03518,13.43426 h 9.96482 v 147.99362 147.99362 l -229.45513,0.25638 -229.45513,0.25638 -5.19325,6 c -23.55733,27.2169 -55.21852,51.67556 -87.39649,67.5149 -30.51107,15.01882 -57.18261,23.16316 -90,27.48211 -11.80931,1.55417 -43.21396,2.67438 -53,1.89052 z m 45.52986,-21.92228 c 31.40237,-3.86482 57.13509,-11.45613 84.47014,-24.91923 28.97803,-14.27229 47.66867,-27.6534 70.55266,-50.51048 41.16083,-41.11242 66.90335,-93.14649 74.40938,-150.40575 2.34969,-17.92443 2.087,-53.45516 -0.52218,-70.62979 -1.12801,-7.425 -2.41018,-15.93295 -2.84926,-18.90656 C 565.32726,430.68066 563.51089,429 557.52724,429 c -3.30094,0 -5.03436,-0.66754 -7.61328,-2.93186 -6.38718,-5.60802 -13.45548,-5.30563 -19.48822,0.83375 -3.71146,3.77707 -3.88649,3.83413 -21.32777,6.95322 -19.93645,3.5653 -22.47014,3.745 -23.27383,1.65061 -0.96445,-2.51331 -6.9243,-5.49803 -10.98628,-5.50198 -5.07583,-0.005 -9.40742,2.64471 -11.7352,7.17846 -1.38182,2.69135 -2.6344,3.76772 -4.65483,4 l -2.76426,0.3178 0.002,9.5 c 0.001,5.225 0.32068,10.85 0.71031,12.5 0.38964,1.65 0.46285,2.4347 0.16271,1.74377 -0.94293,-2.17031 -2.37502,-0.26749 -2.37502,3.15552 0,4.93654 -5.60152,15.15876 -11.58593,21.14316 -14.76689,14.76689 -43.02457,27.34488 -72.91941,32.45771 -14.76568,2.52533 -34.98589,4.20297 -45.99466,3.81611 l -9,-0.31627 v -12 -12 l 19.5,-0.64929 c 38.78038,-1.29126 71.1197,-9.90963 96,-25.58383 10.35171,-6.52141 20.83707,-18.48944 22.57474,-25.76688 0.67335,-2.82005 0.3327,-2.63569 -5.67921,3.07361 C 424.41336,474.09845 380.09231,488 334.13235,488 h -14.94878 v -11.80044 -11.80044 l 20.75,-1.15696 c 11.4125,-0.63632 25.025,-1.89832 30.25,-2.80444 41.67876,-7.22789 71.19276,-21.91765 84.25932,-41.93772 l 3.91604,-6 -0.36432,-9.53333 c -0.29994,-7.84858 -0.83962,-10.50479 -3.0538,-15.03042 -11.01738,-22.51871 -45.16899,-39.06443 -95.25724,-46.15009 -5.4181,-0.76646 -18.75072,-1.25284 -33.5,-1.22209 -19.81607,0.0413 -27.08831,0.45521 -38.03853,2.16498 -47.75291,7.45616 -79.61541,23.56322 -89.98899,45.49102 -2.56299,5.41768 -2.97101,7.43798 -2.97169,14.71421 -9.6e-4,10.2904 1.80673,14.58358 9.75577,23.16949 10.17773,10.99316 30.88554,22.46467 50.22778,27.82467 4.066,1.12675 7.80414,2.46004 8.30696,2.96286 1.29111,1.29111 2.04164,21.30018 0.8633,23.01546 -0.80734,1.17522 -2.7896,0.81411 -12.04378,-2.19406 -33.94264,-11.03343 -55.38062,-28.39423 -57.85647,-46.85305 -0.48516,-3.61713 -0.68741,-3.85516 -2.0867,-2.45588 -1.09164,1.09165 -1.6768,4.2129 -1.98043,10.5636 -0.3928,8.21579 -0.19476,9.49694 2.23617,14.46557 7.35699,15.03715 28.33935,29.24001 55.57661,37.61955 5.775,1.77668 10.83061,3.72919 11.23469,4.33892 0.40408,0.60972 0.74158,5.94609 0.75,11.85859 l 0.0153,10.75 h -2.48506 c -3.86084,0 -22.9762,-6.70745 -31.93835,-11.20696 -10.52852,-5.28591 -15.70266,-8.86691 -23.32659,-16.14421 -5.69314,-5.4343 -6.25,-5.74642 -6.25,-3.50312 0,3.28616 4.92499,10.88411 10.68163,16.47892 6.45313,6.27172 14.92949,11.85028 25.69576,16.91117 8.95808,4.21092 26.37438,10.4642 29.14432,10.4642 2.3467,0 3.09257,3.0247 3.3892,13.74409 0.24153,8.72838 0.0415,10.33694 -1.35199,10.87167 -2.13231,0.81825 -19.70423,-4.77565 -30.12515,-9.59013 -10.49074,-4.84673 -19.44757,-10.84416 -26.65762,-17.84974 -3.14812,-3.05884 -6.04549,-5.23989 -6.43861,-4.84677 -1.35737,1.35737 3.55462,9.48243 9.71168,16.06434 10.71085,11.44994 25.12375,19.63279 46.95078,26.65609 l 11.5,3.70037 0.28147,12.21141 0.28147,12.21141 -3.28147,-0.71414 c -12.21844,-2.65904 -32.18805,-11.3242 -43.83639,-19.02135 -12.40311,-8.19592 -22.94216,-22.4941 -22.94429,-31.12823 -7.5e-4,-3.03753 -1.35252,-5.17806 -2.25148,-3.56525 -0.23184,0.41593 -0.20774,0.0812 0.0536,-0.74377 0.26129,-0.825 0.69229,-5.43137 0.95777,-10.23639 0.4192,-7.58699 0.17068,-9.49467 -1.88896,-14.5 -1.76762,-4.29564 -2.36129,-7.60335 -2.3309,-12.98691 0.0243,-4.31024 -0.39712,-7.39134 -1.04505,-7.63997 -0.59721,-0.22917 -3.98063,1.55069 -7.51872,3.95525 -6.02682,4.09595 -6.74989,4.33568 -11.45494,3.79789 -4.20759,-0.48094 -5.58968,-0.19096 -8.52206,1.78798 -4.60169,3.1055 -7.24805,8.27615 -6.57177,12.84039 0.46961,3.16948 -0.0535,4.183 -5.27703,10.22396 -3.18908,3.68814 -8.01522,9.84794 -10.72476,13.68843 -3.20471,4.54235 -5.62542,7.00554 -6.92644,7.04801 -4.04244,0.13195 -10.35562,3.84147 -12.02202,7.06395 -1.63129,3.15455 -1.7071,10.5516 -0.14308,13.96058 C 124.94695,571.11674 108.0309,588 103.4828,588 c -0.7418,0 -1.81756,-1.2375 -2.39059,-2.75 -3.390608,-8.94953 -14.628693,-11.61942 -21.547833,-5.11923 l -2.318941,2.17853 -7.555331,-5.78691 c -4.155433,-3.18281 -7.829756,-5.5125 -8.165163,-5.17709 -1.1753,1.1753 6.936654,22.29913 14.398541,37.49434 12.451062,25.35504 26.908887,45.65457 47.733347,67.0201 41.31856,42.3921 93.56477,68.35451 154.04674,76.54954 14.11064,1.91193 47.20913,1.94155 62.52986,0.056 z M 324.7995,681.18758 c -1.08109,-1.74923 -1.79141,-22.96109 -0.78963,-23.58023 0.49801,-0.30779 7.46539,-0.79504 15.48306,-1.08279 51.19466,-1.83731 95.67967,-16.69726 114.76413,-38.33627 4.43684,-5.03073 8.91687,-12.99948 8.94182,-15.90505 0.008,-0.98078 0.4774,-2.45824 1.04216,-3.28324 0.71838,-1.04939 0.93727,2.85587 0.72864,13 -0.2744,13.34194 -0.51496,14.96365 -3.01216,20.30531 -3.38968,7.25074 -12.89948,17.27904 -22.18951,23.39934 -17.42251,11.47801 -42.07653,19.65361 -71.58444,23.73836 -14.70502,2.0356 -42.5131,3.15382 -43.38407,1.74457 z m -70.66145,-11.09529 c -26.68154,-8.91361 -45.24436,-22.04576 -52.34557,-37.03152 -3.00239,-6.33598 -3.12726,-7.14324 -3.64433,-23.56077 -0.43837,-13.91875 -0.88214,-17.725 -2.44836,-21 -1.60675,-3.35972 -1.95124,-6.64113 -2.15217,-20.5 -0.18441,-12.72011 -0.0255,-15.29187 0.69356,-11.22624 3.44556,19.48059 25.41126,37.11015 58.87095,47.24952 l 10.84191,3.28545 0.61476,4.48521 c 0.86252,6.29274 0.7384,17.46312 -0.21065,18.95783 -0.6098,0.96041 -3.30097,0.43947 -11.5619,-2.23808 -20.49251,-6.64206 -36.23223,-15.41005 -46.57852,-25.94708 C 203.21152,599.50497 200.35946,597 199.87983,597 c -1.55945,0 0.42913,8.38426 3.07986,12.98537 3.51796,6.10642 10.48554,13.38043 17.86205,18.64763 7.67479,5.48018 24.19578,13.35509 35.36183,16.8556 14.4118,4.51803 13,2.83583 13,15.48996 0,6.06179 0.1125,11.35894 0.25,11.77144 0.60757,1.82272 -4.58455,0.92055 -15.29552,-2.65771 z m 65.47842,-32.40656 c -0.27738,-0.72284 -0.37576,-6.11104 -0.21862,-11.97377 l 0.28572,-10.65951 14.69347,-0.52553 c 50.63297,-1.81094 94.12427,-16.03264 113.9724,-37.26911 4.3521,-4.65653 9.83413,-13.75309 9.83413,-16.3182 0,-0.61978 -3.08723,1.72776 -6.8605,5.21676 -16.58225,15.33294 -42.11264,26.0375 -76.1395,31.92428 -11.54888,1.998 -46.62913,4.38263 -49.31435,3.35222 -1.0621,-0.40757 -1.62001,-3.39017 -2.14271,-11.45495 -0.3887,-5.99715 -0.46241,-11.2992 -0.16382,-11.78234 0.2986,-0.48313 7.87294,-1.17318 16.83189,-1.53345 49.68838,-1.99812 89.80211,-14.91707 110.73194,-35.66213 7.69357,-7.62564 11.09773,-13.36769 12.74622,-21.5 0.60327,-2.97608 0.88205,-0.4802 1.08905,9.75026 0.2534,12.52367 0.0527,14.40369 -2.25,21.07518 -2.00782,5.81718 -2.52822,9.26626 -2.52822,16.75634 0,5.18728 0.42951,10.92905 0.95448,12.75948 0.77122,2.68911 0.70521,3.12119 -0.34386,2.25055 -1.00951,-0.83782 -1.58005,-0.13367 -2.56473,3.16534 -3.73939,12.52815 -16.51996,24.90833 -35.6828,34.56493 -16.42791,8.27841 -46.59353,15.96951 -71.03518,18.1113 -17.30357,1.51628 -31.25971,1.40793 -31.89501,-0.24765 z m 143.64605,-47.26906 c 0.048,-1.16495 0.28494,-1.4019 0.60416,-0.60417 0.28887,0.72187 0.25335,1.58438 -0.0789,1.91667 -0.33229,0.33229 -0.56864,-0.25834 -0.52522,-1.3125 z M 319.93357,563.45776 c -0.4125,-0.4351 -0.75,-6.04855 -0.75,-12.47433 v -11.68324 l 17.75,-0.61666 C 394.59575,536.68029 442.16902,517.66864 456.25314,491 c 0.72616,-1.375 1.86349,-5.2 2.52739,-8.5 l 1.2071,-6 0.098,10.75 c 0.0539,5.9125 0.0219,10.8625 -0.071,11 -0.0929,0.1375 0.36747,1.25237 1.02314,2.47749 0.9776,1.82666 0.94254,2.13173 -0.1948,1.69529 -1.01582,-0.38981 -1.52155,0.66226 -1.8901,3.93195 -1.94829,17.28523 -25.0569,36.35971 -55.88866,46.13203 -12.21104,3.87037 -26.78001,7.15712 -39.8806,8.99705 -13.09543,1.83921 -42.12179,3.16399 -43.25,1.97395 z m 143.32895,-54.04109 c 0.048,-1.16495 0.28494,-1.4019 0.60416,-0.60417 0.28887,0.72187 0.25335,1.58438 -0.0789,1.91667 -0.33229,0.33229 -0.56864,-0.25834 -0.52522,-1.3125 z m -5,-37 c 0.048,-1.16495 0.28494,-1.4019 0.60416,-0.60417 0.28887,0.72187 0.25335,1.58438 -0.0789,1.91667 -0.33229,0.33229 -0.56864,-0.25834 -0.52522,-1.3125 z"
         style="fill:#d9c324" />
      <path
         id="path851"
         d="m 294.68357,774.38753 c -21.71511,-1.73938 -42.12461,-5.39919 -61.5,-11.02812 -17.41241,-5.05864 -27.97411,-9.22529 -46.5,-18.34451 C 104.28735,704.45605 47.728357,625.75844 33.411835,531.74875 c -2.4022,-15.77409 -2.391528,-60.50323 0.01825,-76.4975 6.465291,-42.91164 21.466968,-82.52353 44.22718,-116.78177 46.257095,-69.62531 118.435905,-113.91634 203.026305,-124.58289 14.71569,-1.8556 51.24355,-1.57524 66.5,0.5104 48.59954,6.64382 90.49818,23.29966 130.17201,51.74688 27.30651,19.57951 51.11906,44.59082 70.56137,74.11354 3.53418,5.36657 7.26038,10.20407 8.28046,10.75 C 557.4073,351.65492 629.17045,352 762.61783,352 h 204.56574 v 9.56574 c 0,13.51374 -0.0712,13.43426 12.03518,13.43426 h 9.96482 v 147.99362 147.99362 l -229.45513,0.25638 -229.45513,0.25638 -5.19325,6 c -23.55733,27.2169 -55.21852,51.67556 -87.39649,67.5149 -30.51107,15.01882 -57.18261,23.16316 -90,27.48211 -11.80931,1.55417 -43.21396,2.67438 -53,1.89052 z m 45.52986,-21.92228 c 31.40237,-3.86482 57.13509,-11.45613 84.47014,-24.91923 28.97803,-14.27229 47.66867,-27.6534 70.55266,-50.51048 41.16083,-41.11242 66.90335,-93.14649 74.40938,-150.40575 2.34969,-17.92443 2.087,-53.45516 -0.52218,-70.62979 -1.12801,-7.425 -2.41018,-15.93295 -2.84926,-18.90656 C 565.32726,430.68066 563.51089,429 557.52724,429 c -3.30094,0 -5.03436,-0.66754 -7.61328,-2.93186 -6.38718,-5.60802 -13.45548,-5.30563 -19.48822,0.83375 -3.71146,3.77707 -3.88649,3.83413 -21.32777,6.95322 -19.93645,3.5653 -22.47014,3.745 -23.27383,1.65061 -0.96445,-2.51331 -6.9243,-5.49803 -10.98628,-5.50198 -5.05807,-0.005 -9.40563,2.6413 -11.70884,7.1268 -1.35205,2.6331 -2.65247,3.74623 -4.73339,4.05164 l -2.86917,0.42111 1.80287,-4.74478 c 2.74875,-7.23412 3.61575,-32.08573 1.44022,-41.28247 -1.96422,-8.30349 -4.21424,-12.18971 -11.53008,-19.91466 -7.15909,-7.55945 -12.50127,-11.40579 -23.5559,-16.96013 -27.7085,-13.922 -63.50901,-20.55173 -104.82365,-19.41182 -37.17288,1.02564 -65.25144,7.30357 -90.68717,20.27626 -12.83434,6.54576 -22.33208,14.2006 -27.8245,22.42557 -5.59166,8.37357 -6.5806,12.37814 -6.66991,27.00874 -0.0653,10.70428 -0.41816,13.36194 -2.45606,18.5 -2.22087,5.5994 -2.36825,7.18293 -2.20742,23.71734 0.14181,14.57894 0.50881,18.65309 2.07183,23 2.4614,6.8454 3.70997,20.2319 1.81938,19.50641 -0.72194,-0.27703 -4.20741,1.46367 -7.7455,3.86823 -6.02682,4.09595 -6.74989,4.33568 -11.45494,3.79789 -4.20759,-0.48094 -5.58968,-0.19096 -8.52206,1.78798 -4.60169,3.1055 -7.24805,8.27615 -6.57177,12.84039 0.46961,3.16948 -0.0535,4.183 -5.27703,10.22396 -3.18908,3.68814 -8.01522,9.84794 -10.72476,13.68843 -3.20471,4.54235 -5.62542,7.00554 -6.92644,7.04801 -4.04244,0.13195 -10.35562,3.84147 -12.02202,7.06395 -1.63129,3.15455 -1.7071,10.5516 -0.14308,13.96058 C 124.94695,571.11674 108.0309,588 103.4828,588 c -0.7418,0 -1.81756,-1.2375 -2.39059,-2.75 -3.390608,-8.94953 -14.628693,-11.61942 -21.547833,-5.11923 l -2.318941,2.17853 -7.555331,-5.78691 c -4.155433,-3.18281 -7.829756,-5.5125 -8.165163,-5.17709 -1.1753,1.1753 6.936654,22.29913 14.398541,37.49434 12.451062,25.35504 26.908887,45.65457 47.733347,67.0201 41.31856,42.3921 93.56477,68.35451 154.04674,76.54954 14.11064,1.91193 47.20913,1.94155 62.52986,0.056 z M 329.96709,681.2616 c 2.90594,-0.20265 7.40594,-0.20052 10,0.005 2.59406,0.20525 0.21648,0.37104 -5.28352,0.36844 -5.5,-0.003 -7.62242,-0.17053 -4.71648,-0.37317 z m 24.97814,-0.96886 c 1.24391,-0.23919 3.04391,-0.23011 4,0.0202 0.95609,0.25029 -0.0617,0.446 -2.26166,0.4349 -2.2,-0.0111 -2.98225,-0.21589 -1.73834,-0.45508 z m 9.50737,-0.98573 c 0.97297,-0.25354 2.32297,-0.23687 3,0.0371 0.67703,0.27393 -0.11903,0.48137 -1.76903,0.46099 -1.65,-0.0204 -2.20394,-0.2445 -1.23097,-0.49804 z m 7.48097,-0.96929 c 0.6875,-0.27741 1.8125,-0.27741 2.5,0 0.6875,0.27741 0.125,0.50439 -1.25,0.50439 -1.375,0 -1.9375,-0.22698 -1.25,-0.50439 z m 6,-1 c 0.6875,-0.27741 1.8125,-0.27741 2.5,0 0.6875,0.27741 0.125,0.50439 -1.25,0.50439 -1.375,0 -1.9375,-0.22698 -1.25,-0.50439 z m 5.0625,-1.02083 c 0.72187,-0.28887 1.58438,-0.25335 1.91667,0.0789 0.33229,0.33229 -0.25834,0.56864 -1.3125,0.52522 -1.16495,-0.048 -1.4019,-0.28494 -0.60417,-0.60416 z m 5,-1 c 0.72187,-0.28887 1.58438,-0.25335 1.91667,0.0789 0.33229,0.33229 -0.25834,0.56864 -1.3125,0.52522 -1.16495,-0.048 -1.4019,-0.28494 -0.60417,-0.60416 z m 5,-1 c 0.72187,-0.28887 1.58438,-0.25335 1.91667,0.0789 0.33229,0.33229 -0.25834,0.56864 -1.3125,0.52522 -1.16495,-0.048 -1.4019,-0.28494 -0.60417,-0.60416 z m -127,-1 c 0.72187,-0.28887 1.58438,-0.25335 1.91667,0.0789 0.33229,0.33229 -0.25834,0.56864 -1.3125,0.52522 -1.16495,-0.048 -1.4019,-0.28494 -0.60417,-0.60416 z M 416.18357,667 c 0.825,-0.53316 1.95,-0.96937 2.5,-0.96937 0.55,0 0.325,0.43621 -0.5,0.96937 -0.825,0.53316 -1.95,0.96937 -2.5,0.96937 -0.55,0 -0.325,-0.43621 0.5,-0.96937 z m -176,-2 c -0.825,-0.53316 -1.05,-0.96937 -0.5,-0.96937 0.55,0 1.675,0.43621 2.5,0.96937 0.825,0.53316 1.05,0.96937 0.5,0.96937 -0.55,0 -1.675,-0.43621 -2.5,-0.96937 z m 183,-1 c 0.825,-0.53316 1.95,-0.96937 2.5,-0.96937 0.55,0 0.325,0.43621 -0.5,0.96937 -0.825,0.53316 -1.95,0.96937 -2.5,0.96937 -0.55,0 -0.325,-0.43621 0.5,-0.96937 z m 4,-1.45935 c 0,-0.275 1.8,-1.41829 4,-2.54065 2.2,-1.12236 4,-1.81565 4,-1.54065 0,0.275 -1.8,1.41829 -4,2.54065 -2.2,1.12236 -4,1.81565 -4,1.54065 z M 229.6247,659.44483 c -1.86402,-1.49339 -1.85176,-1.51185 0.30887,-0.46481 1.2375,0.59969 2.25,1.29951 2.25,1.55516 0,0.76522 -0.51861,0.54424 -2.55887,-1.09035 z m 211.55887,-4.82239 c 0,-0.20765 0.7875,-0.99515 1.75,-1.75 1.58606,-1.24387 1.62143,-1.2085 0.37756,0.37756 -1.30637,1.66575 -2.12756,2.19548 -2.12756,1.37244 z M 217.05601,651.25 c -1.24387,-1.58606 -1.2085,-1.62143 0.37756,-0.37756 0.9625,0.75485 1.75,1.54235 1.75,1.75 0,0.82304 -0.82119,0.29331 -2.12756,-1.37244 z m 230.12756,-1.75 c 1.29175,-1.375 2.57363,-2.5 2.84863,-2.5 0.275,0 -0.55688,1.125 -1.84863,2.5 -1.29175,1.375 -2.57363,2.5 -2.84863,2.5 -0.275,0 0.55688,-1.125 1.84863,-2.5 z m -236.56291,-3.75 -2.93709,-3.25 3.25,2.93709 c 1.7875,1.6154 3.25,3.0779 3.25,3.25 0,0.77256 -0.82513,0.0924 -3.56291,-2.93709 z m 244.56291,-4.25 c 1.29175,-1.375 2.57363,-2.5 2.84863,-2.5 0.275,0 -0.55688,1.125 -1.84863,2.5 -1.29175,1.375 -2.57363,2.5 -2.84863,2.5 -0.275,0 0.55688,-1.125 1.84863,-2.5 z m -249.19291,-1.25 c -1.76189,-2.0516 -3.08309,-4.25 -2.55417,-4.25 0.20403,0 1.36906,1.35 2.58896,3 2.41033,3.26015 2.38777,4.07089 -0.0348,1.25 z M 459.18357,636 c 0.5887,-1.1 1.29537,-2 1.57037,-2 0.275,0 0.0183,0.9 -0.57037,2 -0.5887,1.1 -1.29537,2 -1.57037,2 -0.275,0 -0.0183,-0.9 0.57037,-2 z M 198.45593,621 c 0,-2.475 0.19502,-3.4875 0.43337,-2.25 0.23836,1.2375 0.23836,3.2625 0,4.5 -0.23835,1.2375 -0.43337,0.225 -0.43337,-2.25 z m 266.05578,-3.5 c 0.004,-3.85 0.18518,-5.30246 0.40166,-3.2277 0.21647,2.07477 0.21284,5.22477 -0.008,7 -0.22091,1.77524 -0.39803,0.0777 -0.39359,-3.7723 z m -268.7046,-28.03866 c -0.96498,-2.51469 -0.68031,-3.16355 0.49853,-1.13634 0.58369,1.00375 0.8506,2.03566 0.59313,2.29313 -0.25747,0.25747 -0.74872,-0.26309 -1.09166,-1.15679 z m -1.54459,-5.04467 c 0.048,-1.16495 0.28494,-1.4019 0.60416,-0.60417 0.28887,0.72187 0.25335,1.58438 -0.0789,1.91667 -0.3323,0.33229 -0.56864,-0.25834 -0.52522,-1.3125 z M 193.51171,574.5 c 0.004,-3.85 0.18518,-5.30246 0.40166,-3.2277 0.21647,2.07477 0.21284,5.22477 -0.008,7 -0.22091,1.77524 -0.39803,0.0777 -0.39359,-3.7723 z M 464.50364,538 c 0,-3.575 0.1815,-5.0375 0.40333,-3.25 0.22182,1.7875 0.22182,4.7125 0,6.5 -0.22183,1.7875 -0.40333,0.325 -0.40333,-3.25 z M 196.80711,516.46134 c -0.96498,-2.51469 -0.68031,-3.16355 0.49853,-1.13634 0.58369,1.00375 0.8506,2.03566 0.59313,2.29313 -0.25747,0.25747 -0.74872,-0.26309 -1.09166,-1.15679 z m -2.54459,-7.04467 c 0.048,-1.16495 0.28494,-1.4019 0.60416,-0.60417 0.28887,0.72187 0.25335,1.58438 -0.0789,1.91667 -0.3323,0.33229 -0.56864,-0.25834 -0.52522,-1.3125 z M 193.45593,502 c 0,-2.475 0.19502,-3.4875 0.43337,-2.25 0.23836,1.2375 0.23836,3.2625 0,4.5 -0.23835,1.2375 -0.43337,0.225 -0.43337,-2.25 z m 261.88553,-52 c 0,-1.375 0.22698,-1.9375 0.50439,-1.25 0.27741,0.6875 0.27741,1.8125 0,2.5 -0.27741,0.6875 -0.50439,0.125 -0.50439,-1.25 z"
         style="fill:#9d76a8" />
      <path
         id="path849"
         d="m 294.68357,774.38753 c -21.71511,-1.73938 -42.12461,-5.39919 -61.5,-11.02812 -17.41241,-5.05864 -27.97411,-9.22529 -46.5,-18.34451 C 104.28735,704.45605 47.728357,625.75844 33.411835,531.74875 c -2.4022,-15.77409 -2.391528,-60.50323 0.01825,-76.4975 6.465291,-42.91164 21.466968,-82.52353 44.22718,-116.78177 46.257095,-69.62531 118.435905,-113.91634 203.026305,-124.58289 14.71569,-1.8556 51.24355,-1.57524 66.5,0.5104 48.59954,6.64382 90.49818,23.29966 130.17201,51.74688 27.30651,19.57951 51.11906,44.59082 70.56137,74.11354 3.53418,5.36657 7.26038,10.20407 8.28046,10.75 C 557.4073,351.65492 629.17045,352 762.61783,352 h 204.56574 v 9.56574 c 0,13.51374 -0.0712,13.43426 12.03518,13.43426 h 9.96482 v 147.99362 147.99362 l -229.45513,0.25638 -229.45513,0.25638 -5.19325,6 c -23.55733,27.2169 -55.21852,51.67556 -87.39649,67.5149 -30.51107,15.01882 -57.18261,23.16316 -90,27.48211 -11.80931,1.55417 -43.21396,2.67438 -53,1.89052 z m 44.86747,-20.89129 c 72.14968,-8.4398 135.94292,-44.67203 179.417,-101.90229 28.35031,-37.321 45.45203,-78.94542 51.72123,-125.88595 2.39231,-17.91234 1.64359,-60.08573 -1.35295,-76.208 -2.68257,-14.43307 -8.21167,-35.02193 -12.68115,-47.22119 -8.7714,-23.94118 -26.59587,-55.32414 -42.50552,-74.83813 C 485.95621,292.86003 447.21934,264.51993 405.43437,247.90399 375.46893,235.98813 334.21063,229.05474 301.18357,230.38482 203.38264,234.32349 117.51151,290.08337 74.6238,377.5 c -11.934071,24.32482 -18.749128,45.21526 -23.568254,72.24459 -2.66554,14.95039 -3.70797,51.80529 -1.938124,68.52205 3.923839,37.06189 14.637744,71.57941 31.708889,102.15811 40.882299,73.23045 113.642249,122.25768 197.392169,133.00712 14.54689,1.86712 45.64238,1.89975 61.33256,0.0644 z m -9.58395,-72.23464 c 2.90594,-0.20265 7.40594,-0.20052 10,0.005 2.59406,0.20525 0.21648,0.37104 -5.28352,0.36844 -5.5,-0.003 -7.62242,-0.17053 -4.71648,-0.37317 z m 24.97814,-0.96886 c 1.24391,-0.23919 3.04391,-0.23011 4,0.0202 0.95609,0.25029 -0.0617,0.446 -2.26166,0.4349 -2.2,-0.0111 -2.98225,-0.21589 -1.73834,-0.45508 z m 9.50737,-0.98573 c 0.97297,-0.25354 2.32297,-0.23687 3,0.0371 0.67703,0.27393 -0.11903,0.48137 -1.76903,0.46099 -1.65,-0.0204 -2.20394,-0.2445 -1.23097,-0.49804 z m 7.48097,-0.96929 c 0.6875,-0.27741 1.8125,-0.27741 2.5,0 0.6875,0.27741 0.125,0.50439 -1.25,0.50439 -1.375,0 -1.9375,-0.22698 -1.25,-0.50439 z m 6,-1 c 0.6875,-0.27741 1.8125,-0.27741 2.5,0 0.6875,0.27741 0.125,0.50439 -1.25,0.50439 -1.375,0 -1.9375,-0.22698 -1.25,-0.50439 z m 5.0625,-1.02083 c 0.72187,-0.28887 1.58438,-0.25335 1.91667,0.0789 0.33229,0.33229 -0.25834,0.56864 -1.3125,0.52522 -1.16495,-0.048 -1.4019,-0.28494 -0.60417,-0.60416 z m 5,-1 c 0.72187,-0.28887 1.58438,-0.25335 1.91667,0.0789 0.33229,0.33229 -0.25834,0.56864 -1.3125,0.52522 -1.16495,-0.048 -1.4019,-0.28494 -0.60417,-0.60416 z m 5,-1 c 0.72187,-0.28887 1.58438,-0.25335 1.91667,0.0789 0.33229,0.33229 -0.25834,0.56864 -1.3125,0.52522 -1.16495,-0.048 -1.4019,-0.28494 -0.60417,-0.60416 z m -127,-1 c 0.72187,-0.28887 1.58438,-0.25335 1.91667,0.0789 0.33229,0.33229 -0.25834,0.56864 -1.3125,0.52522 -1.16495,-0.048 -1.4019,-0.28494 -0.60417,-0.60416 z M 416.18357,667 c 0.825,-0.53316 1.95,-0.96937 2.5,-0.96937 0.55,0 0.325,0.43621 -0.5,0.96937 -0.825,0.53316 -1.95,0.96937 -2.5,0.96937 -0.55,0 -0.325,-0.43621 0.5,-0.96937 z m -176,-2 c -0.825,-0.53316 -1.05,-0.96937 -0.5,-0.96937 0.55,0 1.675,0.43621 2.5,0.96937 0.825,0.53316 1.05,0.96937 0.5,0.96937 -0.55,0 -1.675,-0.43621 -2.5,-0.96937 z m 183,-1 c 0.825,-0.53316 1.95,-0.96937 2.5,-0.96937 0.55,0 0.325,0.43621 -0.5,0.96937 -0.825,0.53316 -1.95,0.96937 -2.5,0.96937 -0.55,0 -0.325,-0.43621 0.5,-0.96937 z m 4,-1.45935 c 0,-0.275 1.8,-1.41829 4,-2.54065 2.2,-1.12236 4,-1.81565 4,-1.54065 0,0.275 -1.8,1.41829 -4,2.54065 -2.2,1.12236 -4,1.81565 -4,1.54065 z M 229.6247,659.44483 c -1.86402,-1.49339 -1.85176,-1.51185 0.30887,-0.46481 1.2375,0.59969 2.25,1.29951 2.25,1.55516 0,0.76522 -0.51861,0.54424 -2.55887,-1.09035 z m 211.55887,-4.82239 c 0,-0.20765 0.7875,-0.99515 1.75,-1.75 1.58606,-1.24387 1.62143,-1.2085 0.37756,0.37756 -1.30637,1.66575 -2.12756,2.19548 -2.12756,1.37244 z M 217.05601,651.25 c -1.24387,-1.58606 -1.2085,-1.62143 0.37756,-0.37756 0.9625,0.75485 1.75,1.54235 1.75,1.75 0,0.82304 -0.82119,0.29331 -2.12756,-1.37244 z m 230.12756,-1.75 c 1.29175,-1.375 2.57363,-2.5 2.84863,-2.5 0.275,0 -0.55688,1.125 -1.84863,2.5 -1.29175,1.375 -2.57363,2.5 -2.84863,2.5 -0.275,0 0.55688,-1.125 1.84863,-2.5 z m -236.56291,-3.75 -2.93709,-3.25 3.25,2.93709 c 1.7875,1.6154 3.25,3.0779 3.25,3.25 0,0.77256 -0.82513,0.0924 -3.56291,-2.93709 z m 244.56291,-4.25 c 1.29175,-1.375 2.57363,-2.5 2.84863,-2.5 0.275,0 -0.55688,1.125 -1.84863,2.5 -1.29175,1.375 -2.57363,2.5 -2.84863,2.5 -0.275,0 0.55688,-1.125 1.84863,-2.5 z m -249.19291,-1.25 c -1.76189,-2.0516 -3.08309,-4.25 -2.55417,-4.25 0.20403,0 1.36906,1.35 2.58896,3 2.41033,3.26015 2.38777,4.07089 -0.0348,1.25 z M 459.18357,636 c 0.5887,-1.1 1.29537,-2 1.57037,-2 0.275,0 0.0183,0.9 -0.57037,2 -0.5887,1.1 -1.29537,2 -1.57037,2 -0.275,0 -0.0183,-0.9 0.57037,-2 z M 198.45593,621 c 0,-2.475 0.19502,-3.4875 0.43337,-2.25 0.23836,1.2375 0.23836,3.2625 0,4.5 -0.23835,1.2375 -0.43337,0.225 -0.43337,-2.25 z m 266.05578,-3.5 c 0.004,-3.85 0.18518,-5.30246 0.40166,-3.2277 0.21647,2.07477 0.21284,5.22477 -0.008,7 -0.22091,1.77524 -0.39803,0.0777 -0.39359,-3.7723 z m -268.7046,-28.03866 c -0.96498,-2.51469 -0.68031,-3.16355 0.49853,-1.13634 0.58369,1.00375 0.8506,2.03566 0.59313,2.29313 -0.25747,0.25747 -0.74872,-0.26309 -1.09166,-1.15679 z m -1.54459,-5.04467 c 0.048,-1.16495 0.28494,-1.4019 0.60416,-0.60417 0.28887,0.72187 0.25335,1.58438 -0.0789,1.91667 -0.3323,0.33229 -0.56864,-0.25834 -0.52522,-1.3125 z M 193.51171,574.5 c 0.004,-3.85 0.18518,-5.30246 0.40166,-3.2277 0.21647,2.07477 0.21284,5.22477 -0.008,7 -0.22091,1.77524 -0.39803,0.0777 -0.39359,-3.7723 z M 464.50364,538 c 0,-3.575 0.1815,-5.0375 0.40333,-3.25 0.22182,1.7875 0.22182,4.7125 0,6.5 -0.22183,1.7875 -0.40333,0.325 -0.40333,-3.25 z M 196.80711,516.46134 c -0.96498,-2.51469 -0.68031,-3.16355 0.49853,-1.13634 0.58369,1.00375 0.8506,2.03566 0.59313,2.29313 -0.25747,0.25747 -0.74872,-0.26309 -1.09166,-1.15679 z m -2.54459,-7.04467 c 0.048,-1.16495 0.28494,-1.4019 0.60416,-0.60417 0.28887,0.72187 0.25335,1.58438 -0.0789,1.91667 -0.3323,0.33229 -0.56864,-0.25834 -0.52522,-1.3125 z M 193.45593,502 c 0,-2.475 0.19502,-3.4875 0.43337,-2.25 0.23836,1.2375 0.23836,3.2625 0,4.5 -0.23835,1.2375 -0.43337,0.225 -0.43337,-2.25 z m -1.27286,-14.25 c -3.4e-4,-4.17906 -0.74494,-8.07243 -2.24718,-11.75 -2.06363,-5.05189 -2.2469,-7.08875 -2.2495,-25 -0.003,-17.29465 0.21749,-19.95238 1.94523,-23.5 1.56434,-3.21211 2.05677,-6.95901 2.5,-19.02248 0.5351,-14.56379 0.65631,-15.23443 3.96994,-21.96394 13.04906,-26.50087 57.50427,-45.10487 116.08201,-48.57902 41.19447,-2.44317 84.1602,5.07618 112.62671,19.71061 11.0065,5.65836 16.34428,9.53509 23.42919,17.01621 11.00094,11.61613 12.9441,17.58084 12.9441,39.73311 0,15.39022 -1.7513,25.91236 -4.4876,26.96238 -0.88206,0.33847 -0.70573,-0.97416 0.58835,-4.37991 2.79401,-7.35323 3.68226,-32.11328 1.48523,-41.40092 -1.96422,-8.30349 -4.21424,-12.18971 -11.53008,-19.91466 -7.15909,-7.55945 -12.50127,-11.40579 -23.5559,-16.96013 -27.7085,-13.922 -63.50901,-20.55173 -104.82365,-19.41182 -37.17288,1.02564 -65.25144,7.30357 -90.68717,20.27626 -12.83434,6.54576 -22.33208,14.2006 -27.8245,22.42557 -5.59166,8.37357 -6.5806,12.37814 -6.66991,27.00874 -0.0653,10.70428 -0.41816,13.36194 -2.45606,18.5 -2.22087,5.5994 -2.36825,7.18293 -2.20742,23.71734 0.14181,14.57894 0.50881,18.65309 2.07183,23 2.1966,6.10896 3.65078,19.78266 2.10386,19.78266 -0.56851,0 -1.0072,-2.72144 -1.00748,-6.25 z M 455.34146,450 c 0,-1.375 0.22698,-1.9375 0.50439,-1.25 0.27741,0.6875 0.27741,1.8125 0,2.5 -0.27741,0.6875 -0.50439,0.125 -0.50439,-1.25 z"
         style="fill:#959195" />
      <path
         id="path847"
         d="m 293.18357,772.95272 c -47.53016,-3.4304 -92.3132,-18.22341 -132.5,-43.76822 C 137.55852,714.48502 106.92562,686.4359 90.815644,665.20967 52.338964,614.51348 32.180898,555.69923 32.184411,494.14405 32.189875,398.40262 79.399804,311.33287 159.9071,258.58378 c 27.80519,-18.2182 63.80954,-32.95884 96.48689,-39.50296 15.31772,-3.0676 23.66644,-4.09957 40.53958,-5.01105 99.67209,-5.38423 193.46463,41.82362 248.96735,125.31074 4.06577,6.11572 8.12864,11.68199 9.02861,12.36949 1.29673,0.9906 44.1153,1.25 206.33448,1.25 h 204.69817 l 0.66943,21.25 c 0.36818,11.6875 0.5305,78.175 0.36069,147.75 l -0.30873,126.5 -209.70005,0.5 c -137.89423,0.32879 -210.00881,0.84242 -210.60175,1.5 -0.49593,0.55 -3.41459,4.44418 -6.4859,8.65373 -7.49269,10.26949 -40.7221,43.64288 -53.41934,53.65079 -32.54193,25.6494 -67.18289,42.60753 -107.29296,52.52416 -29.02096,7.17501 -57.38345,9.68939 -86,7.62404 z m 56.5,-19.84503 c 29.34575,-4.64741 53.59359,-12.46928 79.48369,-25.63986 46.25612,-23.53101 83.80115,-59.28767 109.89637,-104.66173 16.33493,-28.40297 27.45684,-61.20942 32.168,-94.8864 1.88389,-13.46668 2.0987,-18.58614 1.69596,-40.4197 -0.38948,-21.11447 -0.86954,-27.33132 -3.08878,-40 -1.4452,-8.25 -3.26595,-16.35 -4.04612,-18 -0.78017,-1.65 -2.62872,-7.05 -4.10789,-12 -12.6625,-42.37473 -34.18529,-78.29291 -65.94669,-110.05474 -41.57077,-41.57132 -91.36459,-66.48809 -150.05454,-75.0871 -16.3128,-2.39009 -55.33994,-2.41586 -70.80519,-0.0468 -35.03724,5.36729 -65.98093,15.93277 -94.53995,32.27992 C 108.42005,305.7573 60.297451,377.32652 49.619519,459 c -1.285733,9.83433 -1.53059,17.93797 -1.148198,38 0.516241,27.0844 2.008091,39.4697 7.240721,60.1123 1.359343,5.36258 2.471533,10.4633 2.471533,11.33495 0,3.51127 9.574421,27.91286 16.210801,41.31522 37.428144,75.58721 108.544344,128.48928 191.789194,142.66856 18.08317,3.08015 23.60507,3.4432 47,3.09011 17.40508,-0.26269 26.87166,-0.88864 36.5,-2.41345 z"
         style="fill:#727272" />
    </g>
  </g>
</svg>
